{"count":964,"next":"https://pokeapi.co/api/v2/pokemon/?offset=2&limit=1","previous":"https://pokeapi.co/api/v2/pokemon/?offset=0&limit=1","results":[{"name":"ivysaur","url":"https://pokeapi.co/api/v2/pokemon/2/"}]}